<?xml version="1.0" encoding="UTF-8" standalone="no"?>
<!-- Created with Inkscape (http://www.inkscape.org/) -->

<svg
   xmlns:dc="http://purl.org/dc/elements/1.1/"
   xmlns:cc="http://creativecommons.org/ns#"
   xmlns:rdf="http://www.w3.org/1999/02/22-rdf-syntax-ns#"
   xmlns:svg="http://www.w3.org/2000/svg"
   xmlns="http://www.w3.org/2000/svg"
   xmlns:xlink="http://www.w3.org/1999/xlink"
   xmlns:sodipodi="http://sodipodi.sourceforge.net/DTD/sodipodi-0.dtd"
   xmlns:inkscape="http://www.inkscape.org/namespaces/inkscape"
   width="24"
   height="24"
   viewBox="0 0 6.3499998 6.3499998"
   version="1.1"
   id="svg8"
   inkscape:version="0.92.2 2405546, 2018-03-11"
   sodipodi:docname="arxivfeed.svg"
   inkscape:export-filename="/media/DATA/Divers/ArxivFeedViewer/arxivfeedlib/images/icon.png"
   inkscape:export-xdpi="192"
   inkscape:export-ydpi="192">
  <defs
     id="defs2">
    <linearGradient
       id="linearGradient851">
      <stop
         offset="0"
         style="stop-color:#640000;stop-opacity:1"
         id="stop888" />
      <stop
         offset="0.295048"
         style="stop-color:#8c0000;stop-opacity:1"
         id="stop886" />
      <stop
         offset="0.73762"
         style="stop-color:#b40000;stop-opacity:1"
         id="stop884" />
      <stop
         offset="1"
         style="stop-color:#dc0000;stop-opacity:1"
         id="stop882" />
    </linearGradient>
    <linearGradient
       id="linearGradient851-3">
      <stop
         id="stop849"
         style="stop-color:#000000;stop-opacity:1"
         offset="0" />
      <stop
         id="stop847"
         style="stop-color:#323232;stop-opacity:1"
         offset="0.25094184" />
      <stop
         id="stop845"
         style="stop-color:#4b4b4b;stop-opacity:1"
         offset="0.75312883" />
      <stop
         id="stop843"
         style="stop-color:#646464;stop-opacity:1"
         offset="1" />
    </linearGradient>
    <radialGradient
       cx="7.8060555"
       cy="9.9571075"
       r="12.671875"
       fx="7.2758255"
       fy="9.9571075"
       id="radialGradient3858"
       xlink:href="#linearGradient2867-449-88-871-390-598-476-591-434-148-57-177-8-3"
       gradientUnits="userSpaceOnUse"
       gradientTransform="matrix(-0.39522757,0.45780851,-0.51741006,-0.44668178,15.243979,292.12447)" />
    <linearGradient
       id="linearGradient2867-449-88-871-390-598-476-591-434-148-57-177-8-3">
      <stop
         id="stop3750-1-0"
         style="stop-color:#c8c8c8;stop-opacity:1"
         offset="0" />
      <stop
         id="stop3752-3-7"
         style="stop-color:#a0a0a0;stop-opacity:1"
         offset="0.26238" />
      <stop
         id="stop3754-1-8"
         style="stop-color:#787878;stop-opacity:1"
         offset="0.704952" />
      <stop
         id="stop3756-1-6"
         style="stop-color:#646464;stop-opacity:1"
         offset="1" />
    </linearGradient>
    <linearGradient
       inkscape:collect="always"
       xlink:href="#linearGradient851"
       id="linearGradient929"
       x1="0.18780924"
       y1="296.81219"
       x2="6.1621881"
       y2="290.83783"
       gradientUnits="userSpaceOnUse" />
    <linearGradient
       inkscape:collect="always"
       xlink:href="#linearGradient851-3"
       id="linearGradient939"
       gradientUnits="userSpaceOnUse"
       x1="0.1867647"
       y1="296.81323"
       x2="6.1632352"
       y2="290.83676"
       spreadMethod="reflect" />
  </defs>
  <sodipodi:namedview
     id="base"
     pagecolor="#ffffff"
     bordercolor="#666666"
     borderopacity="1.0"
     inkscape:pageopacity="0.0"
     inkscape:pageshadow="2"
     inkscape:zoom="11.2"
     inkscape:cx="24.035403"
     inkscape:cy="17.837108"
     inkscape:document-units="mm"
     inkscape:current-layer="layer1"
     showgrid="false"
     showguides="true"
     inkscape:guide-bbox="true"
     inkscape:window-width="1440"
     inkscape:window-height="874"
     inkscape:window-x="1680"
     inkscape:window-y="457"
     inkscape:window-maximized="1"
     units="px">
    <sodipodi:guide
       position="30.535543,29.06556"
       orientation="1,0"
       id="guide848"
       inkscape:locked="false" />
    <sodipodi:guide
       position="4.7247023,7.7957587"
       orientation="0,1"
       id="guide829"
       inkscape:locked="false" />
    <sodipodi:guide
       position="1.1339285,5.9767484"
       orientation="0,1"
       id="guide833"
       inkscape:locked="false" />
  </sodipodi:namedview>
  <metadata
     id="metadata5">
    <rdf:RDF>
      <cc:Work
         rdf:about="">
        <dc:format>image/svg+xml</dc:format>
        <dc:type
           rdf:resource="http://purl.org/dc/dcmitype/StillImage" />
        <dc:title />
      </cc:Work>
    </rdf:RDF>
  </metadata>
  <g
     inkscape:label="Calque 1"
     inkscape:groupmode="layer"
     id="layer1"
     transform="translate(0,-290.65)">
    <rect
       style="opacity:1;fill:url(#linearGradient929);fill-opacity:1;stroke:url(#linearGradient939);stroke-width:0.3735294;stroke-linecap:butt;stroke-linejoin:round;stroke-miterlimit:4;stroke-dasharray:none;stroke-dashoffset:0;stroke-opacity:1"
       id="rect2828"
       width="5.9764705"
       height="5.9764705"
       x="0.1867647"
       y="290.83676"
       ry="0.56696427"
       inkscape:export-filename="/media/DATA/Divers/ArxivFeedViewer/arxivfeedlib/images/rect2828.png"
       inkscape:export-xdpi="192"
       inkscape:export-ydpi="192" />
    <g
       id="g827"
       transform="matrix(1.0478179,0,0,1.0478179,-0.34500546,-14.007613)">
      <text
         id="text2832"
         y="294.78513"
         x="0.94182885"
         style="font-style:normal;font-variant:normal;font-weight:normal;font-stretch:normal;font-size:5.54599476px;line-height:8.66561699px;font-family:'Latin Modern Sans';-inkscape-font-specification:'Latin Modern Sans';letter-spacing:0px;word-spacing:0px;fill:#ffffff;fill-opacity:1;stroke:none;stroke-width:0.34662467px;stroke-linecap:butt;stroke-linejoin:miter;stroke-opacity:1"
         xml:space="preserve"><tspan
           style="fill:#ffffff;stroke-width:0.34662467px"
           y="294.78513"
           x="0.94182885"
           id="tspan2830"
           sodipodi:role="line">χ</tspan></text>
      <path
         d="m 3.4464945,293.75176 c 0.04313,-0.05 0.096602,-0.0771 0.1603832,-0.0811 0.064309,-0.005 0.1214405,0.0146 0.1713955,0.0574 0.048662,0.0421 0.075004,0.095 0.07909,0.15877 0.00523,0.0637 -0.013753,0.12058 -0.056858,0.17051 -0.042079,0.0487 -0.095261,0.0754 -0.1595874,0.0802 -0.063166,0.005 -0.1190547,-0.0142 -0.1677574,-0.0561 -0.049913,-0.0431 -0.077478,-0.0965 -0.082715,-0.16018 -0.00523,-0.0637 0.013525,-0.12031 0.056062,-0.16959 m 0.6822438,-0.81108 -0.255109,0.2955 c 0.3776077,0.326 0.4191141,0.89795 0.092611,1.27616 l 0.2965852,0.25604 c 0.4676934,-0.54175 0.4068128,-1.36074 -0.1340872,-1.8277 z m 0.5587228,-0.64616 -0.2819948,0.32665 c 0.7169563,0.61895 0.7960576,1.70418 0.1765031,2.42185 l 0.327895,0.28307 c 0.7755473,-0.89835 0.6750822,-2.25676 -0.2224014,-3.03157 z"
         id="path4311"
         style="color:#000000;font-style:normal;font-variant:normal;font-weight:bold;font-stretch:normal;font-size:13.58991337px;line-height:125%;font-family:'Bitstream Vera Serif';text-align:start;writing-mode:lr-tb;text-anchor:start;clip-rule:nonzero;display:inline;overflow:visible;visibility:visible;opacity:1;isolation:auto;mix-blend-mode:normal;color-interpolation:sRGB;color-interpolation-filters:linearRGB;solid-color:#000000;solid-opacity:1;fill:#ffffff;fill-opacity:1;fill-rule:nonzero;stroke:none;stroke-width:0.26875946;stroke-linecap:butt;stroke-linejoin:round;stroke-miterlimit:4;stroke-dasharray:none;stroke-dashoffset:0;stroke-opacity:1;marker:none;color-rendering:auto;image-rendering:auto;shape-rendering:auto;text-rendering:auto;enable-background:accumulate"
         inkscape:connector-curvature="0" />
    </g>
  </g>
</svg>
